PWD c:/Users/USER/OneDrive/司/ドキュメント/dev/numerical-calculation
INPUT c:/texlive/2021/texmf.cnf
INPUT c:/texlive/2021/texmf-dist/web2c/texmf.cnf
INPUT c:/texlive/2021/texmf-var/web2c/eptex/platex.fmt
INPUT c:/Users/USER/OneDrive/司/ドキュメント/dev/numerical-calculation/text.tex
OUTPUT out/text.log
INPUT c:/texlive/2021/texmf-dist/tex/platex/jsclasses/jsarticle.cls
INPUT c:/texlive/2021/texmf-dist/tex/platex/jsclasses/jsarticle.cls
INPUT c:/texlive/2021/texmf-dist/tex/platex/jsclasses/jsarticle.cls
INPUT c:/texlive/2021/texmf-dist/tex/platex/jsclasses/jsarticle.cls
INPUT c:/texlive/2021/texmf-dist/tex/platex/jsclasses/jsarticle.cls
INPUT c:/texlive/2021/texmf-dist/tex/platex/jsclasses/jsarticle.cls
INPUT c:/texlive/2021/texmf-dist/tex/platex/jsclasses/jsarticle.cls
INPUT c:/texlive/2021/texmf-dist/tex/platex/jsclasses/jsarticle.cls
INPUT c:/texlive/2021/texmf-dist/tex/platex/jsclasses/jsarticle.cls
INPUT c:/texlive/2021/texmf-dist/tex/platex/jsclasses/jsarticle.cls
INPUT c:/texlive/2021/texmf-dist/tex/platex/jsclasses/jsarticle.cls
INPUT c:/texlive/2021/texmf-dist/fonts/map/fontname/texfonts.map
INPUT c:/texlive/2021/texmf-dist/fonts/tfm/ptex-fonts/standard/tmin10.tfm
INPUT c:/texlive/2021/texmf-dist/fonts/tfm/ptex-fonts/jis/jis.tfm
INPUT c:/texlive/2021/texmf-dist/fonts/tfm/ptex-fonts/standard/tmin10.tfm
INPUT c:/texlive/2021/texmf-dist/fonts/tfm/ptex-fonts/jis/jis.tfm
INPUT c:/texlive/2021/texmf-dist/fonts/tfm/public/cm/cmr8.tfm
INPUT c:/texlive/2021/texmf-dist/tex/platex/jsclasses/jslogo.sty
INPUT c:/texlive/2021/texmf-dist/tex/platex/jsclasses/jslogo.sty
INPUT c:/texlive/2021/texmf-dist/tex/platex/jsclasses/jslogo.sty
INPUT c:/texlive/2021/texmf-dist/tex/platex/jsclasses/jslogo.sty
INPUT c:/texlive/2021/texmf-dist/tex/platex/jsclasses/jslogo.sty
INPUT c:/texlive/2021/texmf-dist/tex/platex/jsclasses/jslogo.sty
INPUT c:/texlive/2021/texmf-dist/tex/platex/jsclasses/jslogo.sty
INPUT c:/texlive/2021/texmf-dist/tex/platex/jsclasses/jslogo.sty
INPUT c:/texlive/2021/texmf-dist/tex/platex/jsclasses/jslogo.sty
INPUT c:/texlive/2021/texmf-dist/tex/platex/jsclasses/jslogo.sty
INPUT c:/texlive/2021/texmf-dist/tex/platex/jsclasses/jslogo.sty
INPUT c:/texlive/2021/texmf-dist/tex/platex/jsclasses/jslogo.sty
INPUT c:/texlive/2021/texmf-dist/tex/platex/jsclasses/jslogo.sty
INPUT c:/texlive/2021/texmf-dist/tex/latex/amsmath/amsmath.sty
INPUT c:/texlive/2021/texmf-dist/tex/latex/amsmath/amsmath.sty
INPUT c:/texlive/2021/texmf-dist/tex/latex/amsmath/amsmath.sty
INPUT c:/texlive/2021/texmf-dist/tex/latex/amsmath/amsmath.sty
INPUT c:/texlive/2021/texmf-dist/tex/latex/amsmath/amsmath.sty
INPUT c:/texlive/2021/texmf-dist/tex/latex/amsmath/amsmath.sty
INPUT c:/texlive/2021/texmf-dist/tex/latex/amsmath/amsmath.sty
INPUT c:/texlive/2021/texmf-dist/tex/latex/amsmath/amsmath.sty
INPUT c:/texlive/2021/texmf-dist/tex/latex/amsmath/amsmath.sty
INPUT c:/texlive/2021/texmf-dist/tex/latex/amsmath/amsmath.sty
INPUT c:/texlive/2021/texmf-dist/tex/latex/amsmath/amsmath.sty
INPUT c:/texlive/2021/texmf-dist/tex/latex/amsmath/amsopn.sty
INPUT c:/texlive/2021/texmf-dist/tex/latex/amsmath/amsopn.sty
INPUT c:/texlive/2021/texmf-dist/tex/latex/amsmath/amstext.sty
INPUT c:/texlive/2021/texmf-dist/tex/latex/amsmath/amstext.sty
INPUT c:/texlive/2021/texmf-dist/tex/latex/amsmath/amstext.sty
INPUT c:/texlive/2021/texmf-dist/tex/latex/amsmath/amstext.sty
INPUT c:/texlive/2021/texmf-dist/tex/latex/amsmath/amstext.sty
INPUT c:/texlive/2021/texmf-dist/tex/latex/amsmath/amstext.sty
INPUT c:/texlive/2021/texmf-dist/tex/latex/amsmath/amstext.sty
INPUT c:/texlive/2021/texmf-dist/tex/latex/amsmath/amstext.sty
INPUT c:/texlive/2021/texmf-dist/tex/latex/amsmath/amstext.sty
INPUT c:/texlive/2021/texmf-dist/tex/latex/amsmath/amstext.sty
INPUT c:/texlive/2021/texmf-dist/tex/latex/amsmath/amstext.sty
INPUT c:/texlive/2021/texmf-dist/tex/latex/amsmath/amsgen.sty
INPUT c:/texlive/2021/texmf-dist/tex/latex/amsmath/amsgen.sty
INPUT c:/texlive/2021/texmf-dist/tex/latex/amsmath/amsgen.sty
INPUT c:/texlive/2021/texmf-dist/tex/latex/amsmath/amsgen.sty
INPUT c:/texlive/2021/texmf-dist/tex/latex/amsmath/amsgen.sty
INPUT c:/texlive/2021/texmf-dist/tex/latex/amsmath/amsgen.sty
INPUT c:/texlive/2021/texmf-dist/tex/latex/amsmath/amsgen.sty
INPUT c:/texlive/2021/texmf-dist/tex/latex/amsmath/amsgen.sty
INPUT c:/texlive/2021/texmf-dist/tex/latex/amsmath/amsgen.sty
INPUT c:/texlive/2021/texmf-dist/tex/latex/amsmath/amsgen.sty
INPUT c:/texlive/2021/texmf-dist/tex/latex/amsmath/amsgen.sty
INPUT c:/texlive/2021/texmf-dist/tex/latex/amsmath/amsbsy.sty
INPUT c:/texlive/2021/texmf-dist/tex/latex/amsmath/amsbsy.sty
INPUT c:/texlive/2021/texmf-dist/tex/latex/amsmath/amsbsy.sty
INPUT c:/texlive/2021/texmf-dist/tex/latex/amsmath/amsbsy.sty
INPUT c:/texlive/2021/texmf-dist/tex/latex/amsmath/amsbsy.sty
INPUT c:/texlive/2021/texmf-dist/tex/latex/amsmath/amsbsy.sty
INPUT c:/texlive/2021/texmf-dist/tex/latex/amsmath/amsbsy.sty
INPUT c:/texlive/2021/texmf-dist/tex/latex/amsmath/amsbsy.sty
INPUT c:/texlive/2021/texmf-dist/tex/latex/amsmath/amsbsy.sty
INPUT c:/texlive/2021/texmf-dist/tex/latex/amsmath/amsbsy.sty
INPUT c:/texlive/2021/texmf-dist/tex/latex/amsmath/amsbsy.sty
INPUT c:/texlive/2021/texmf-dist/tex/latex/amsmath/amsgen.sty
INPUT c:/texlive/2021/texmf-dist/tex/latex/amsmath/amsopn.sty
INPUT c:/texlive/2021/texmf-dist/tex/latex/amsmath/amsopn.sty
INPUT c:/texlive/2021/texmf-dist/tex/latex/amsmath/amsopn.sty
INPUT c:/texlive/2021/texmf-dist/tex/latex/amsmath/amsopn.sty
INPUT c:/texlive/2021/texmf-dist/tex/latex/amsmath/amsopn.sty
INPUT c:/texlive/2021/texmf-dist/tex/latex/amsmath/amsopn.sty
INPUT c:/texlive/2021/texmf-dist/tex/latex/amsmath/amsopn.sty
INPUT c:/texlive/2021/texmf-dist/tex/latex/amsmath/amsopn.sty
INPUT c:/texlive/2021/texmf-dist/tex/latex/amsmath/amsopn.sty
INPUT c:/texlive/2021/texmf-dist/tex/latex/amsmath/amsopn.sty
INPUT c:/texlive/2021/texmf-dist/tex/latex/amsmath/amsopn.sty
INPUT c:/texlive/2021/texmf-dist/tex/latex/amsmath/amsgen.sty
INPUT c:/texlive/2021/texmf-dist/tex/latex/amsfonts/amsfonts.sty
INPUT c:/texlive/2021/texmf-dist/tex/latex/amsfonts/amsfonts.sty
INPUT c:/texlive/2021/texmf-dist/tex/latex/amsfonts/amsfonts.sty
INPUT c:/texlive/2021/texmf-dist/tex/latex/amsfonts/amsfonts.sty
INPUT c:/texlive/2021/texmf-dist/tex/latex/amsfonts/amsfonts.sty
INPUT c:/texlive/2021/texmf-dist/tex/latex/amsfonts/amsfonts.sty
INPUT c:/texlive/2021/texmf-dist/tex/latex/amsfonts/amsfonts.sty
INPUT c:/texlive/2021/texmf-dist/tex/latex/amsfonts/amsfonts.sty
INPUT c:/texlive/2021/texmf-dist/tex/latex/amsfonts/amsfonts.sty
INPUT c:/texlive/2021/texmf-dist/tex/latex/amsfonts/amsfonts.sty
INPUT c:/texlive/2021/texmf-dist/tex/latex/amsfonts/amsfonts.sty
INPUT c:/texlive/2021/texmf-dist/tex/latex/tools/bm.sty
INPUT c:/texlive/2021/texmf-dist/tex/latex/tools/bm.sty
INPUT c:/texlive/2021/texmf-dist/tex/latex/tools/bm.sty
INPUT c:/texlive/2021/texmf-dist/tex/latex/tools/bm.sty
INPUT c:/texlive/2021/texmf-dist/tex/latex/tools/bm.sty
INPUT c:/texlive/2021/texmf-dist/tex/latex/tools/bm.sty
INPUT c:/texlive/2021/texmf-dist/tex/latex/tools/bm.sty
INPUT c:/texlive/2021/texmf-dist/tex/latex/tools/bm.sty
INPUT c:/texlive/2021/texmf-dist/tex/latex/tools/bm.sty
INPUT c:/texlive/2021/texmf-dist/tex/latex/tools/bm.sty
INPUT c:/texlive/2021/texmf-dist/tex/latex/tools/bm.sty
INPUT c:/texlive/2021/texmf-dist/tex/latex/amsfonts/amssymb.sty
INPUT c:/texlive/2021/texmf-dist/tex/latex/amsfonts/amssymb.sty
INPUT c:/texlive/2021/texmf-dist/tex/latex/amsfonts/amssymb.sty
INPUT c:/texlive/2021/texmf-dist/tex/latex/amsfonts/amssymb.sty
INPUT c:/texlive/2021/texmf-dist/tex/latex/amsfonts/amssymb.sty
INPUT c:/texlive/2021/texmf-dist/tex/latex/amsfonts/amssymb.sty
INPUT c:/texlive/2021/texmf-dist/tex/latex/amsfonts/amssymb.sty
INPUT c:/texlive/2021/texmf-dist/tex/latex/amsfonts/amssymb.sty
INPUT c:/texlive/2021/texmf-dist/tex/latex/amsfonts/amssymb.sty
INPUT c:/texlive/2021/texmf-dist/tex/latex/amsfonts/amssymb.sty
INPUT c:/texlive/2021/texmf-dist/tex/latex/amsfonts/amssymb.sty
INPUT c:/texlive/2021/texmf-dist/tex/latex/amsfonts/amsfonts.sty
INPUT c:/texlive/2021/texmf-dist/tex/latex/graphics/graphicx.sty
INPUT c:/texlive/2021/texmf-dist/tex/latex/graphics/graphicx.sty
INPUT c:/texlive/2021/texmf-dist/tex/latex/graphics/graphicx.sty
INPUT c:/texlive/2021/texmf-dist/tex/latex/graphics/graphicx.sty
INPUT c:/texlive/2021/texmf-dist/tex/latex/graphics/graphicx.sty
INPUT c:/texlive/2021/texmf-dist/tex/latex/graphics/graphicx.sty
INPUT c:/texlive/2021/texmf-dist/tex/latex/graphics/graphicx.sty
INPUT c:/texlive/2021/texmf-dist/tex/latex/graphics/graphicx.sty
INPUT c:/texlive/2021/texmf-dist/tex/latex/graphics/graphicx.sty
INPUT c:/texlive/2021/texmf-dist/tex/latex/graphics/graphicx.sty
INPUT c:/texlive/2021/texmf-dist/tex/latex/graphics/graphicx.sty
INPUT c:/texlive/2021/texmf-dist/tex/latex/graphics/graphics.sty
INPUT c:/texlive/2021/texmf-dist/tex/latex/graphics/graphics.sty
INPUT c:/texlive/2021/texmf-dist/tex/latex/graphics/keyval.sty
INPUT c:/texlive/2021/texmf-dist/tex/latex/graphics/keyval.sty
INPUT c:/texlive/2021/texmf-dist/tex/latex/graphics/keyval.sty
INPUT c:/texlive/2021/texmf-dist/tex/latex/graphics/keyval.sty
INPUT c:/texlive/2021/texmf-dist/tex/latex/graphics/keyval.sty
INPUT c:/texlive/2021/texmf-dist/tex/latex/graphics/keyval.sty
INPUT c:/texlive/2021/texmf-dist/tex/latex/graphics/keyval.sty
INPUT c:/texlive/2021/texmf-dist/tex/latex/graphics/keyval.sty
INPUT c:/texlive/2021/texmf-dist/tex/latex/graphics/keyval.sty
INPUT c:/texlive/2021/texmf-dist/tex/latex/graphics/keyval.sty
INPUT c:/texlive/2021/texmf-dist/tex/latex/graphics/keyval.sty
INPUT c:/texlive/2021/texmf-dist/tex/latex/graphics/graphics.sty
INPUT c:/texlive/2021/texmf-dist/tex/latex/graphics/graphics.sty
INPUT c:/texlive/2021/texmf-dist/tex/latex/graphics/graphics.sty
INPUT c:/texlive/2021/texmf-dist/tex/latex/graphics/graphics.sty
INPUT c:/texlive/2021/texmf-dist/tex/latex/graphics/graphics.sty
INPUT c:/texlive/2021/texmf-dist/tex/latex/graphics/graphics.sty
INPUT c:/texlive/2021/texmf-dist/tex/latex/graphics/graphics.sty
INPUT c:/texlive/2021/texmf-dist/tex/latex/graphics/graphics.sty
INPUT c:/texlive/2021/texmf-dist/tex/latex/graphics/graphics.sty
INPUT c:/texlive/2021/texmf-dist/tex/latex/graphics/graphics.sty
INPUT c:/texlive/2021/texmf-dist/tex/latex/graphics/graphics.sty
INPUT c:/texlive/2021/texmf-dist/tex/latex/graphics/trig.sty
INPUT c:/texlive/2021/texmf-dist/tex/latex/graphics/trig.sty
INPUT c:/texlive/2021/texmf-dist/tex/latex/graphics/trig.sty
INPUT c:/texlive/2021/texmf-dist/tex/latex/graphics/trig.sty
INPUT c:/texlive/2021/texmf-dist/tex/latex/graphics/trig.sty
INPUT c:/texlive/2021/texmf-dist/tex/latex/graphics/trig.sty
INPUT c:/texlive/2021/texmf-dist/tex/latex/graphics/trig.sty
INPUT c:/texlive/2021/texmf-dist/tex/latex/graphics/trig.sty
INPUT c:/texlive/2021/texmf-dist/tex/latex/graphics/trig.sty
INPUT c:/texlive/2021/texmf-dist/tex/latex/graphics/trig.sty
INPUT c:/texlive/2021/texmf-dist/tex/latex/graphics/trig.sty
INPUT c:/texlive/2021/texmf-dist/tex/latex/graphics-cfg/graphics.cfg
INPUT c:/texlive/2021/texmf-dist/tex/latex/graphics-cfg/graphics.cfg
INPUT c:/texlive/2021/texmf-dist/tex/latex/graphics-cfg/graphics.cfg
INPUT c:/texlive/2021/texmf-dist/tex/latex/graphics-cfg/graphics.cfg
INPUT c:/texlive/2021/texmf-dist/tex/latex/graphics-def/dvipdfmx.def
INPUT c:/texlive/2021/texmf-dist/tex/latex/graphics-def/dvipdfmx.def
INPUT c:/texlive/2021/texmf-dist/tex/latex/graphics-def/dvipdfmx.def
INPUT c:/texlive/2021/texmf-dist/tex/latex/graphics-def/dvipdfmx.def
INPUT c:/texlive/2021/texmf-dist/tex/latex/ascmac/ascmac.sty
INPUT c:/texlive/2021/texmf-dist/tex/latex/ascmac/ascmac.sty
INPUT c:/texlive/2021/texmf-dist/tex/latex/ascmac/ascmac.sty
INPUT c:/texlive/2021/texmf-dist/tex/latex/ascmac/ascmac.sty
INPUT c:/texlive/2021/texmf-dist/tex/latex/ascmac/ascmac.sty
INPUT c:/texlive/2021/texmf-dist/tex/latex/ascmac/ascmac.sty
INPUT c:/texlive/2021/texmf-dist/tex/latex/ascmac/ascmac.sty
INPUT c:/texlive/2021/texmf-dist/tex/latex/ascmac/ascmac.sty
INPUT c:/texlive/2021/texmf-dist/tex/latex/ascmac/ascmac.sty
INPUT c:/texlive/2021/texmf-dist/tex/latex/ascmac/ascmac.sty
INPUT c:/texlive/2021/texmf-dist/tex/latex/ascmac/ascmac.sty
INPUT c:/texlive/2021/texmf-dist/tex/latex/ascmac/tascmac.sty
INPUT c:/texlive/2021/texmf-dist/tex/latex/ascmac/tascmac.sty
INPUT c:/texlive/2021/texmf-dist/tex/latex/ascmac/tascmac.sty
INPUT c:/texlive/2021/texmf-dist/tex/latex/ascmac/tascmac.sty
INPUT c:/texlive/2021/texmf-dist/tex/latex/ascmac/tascmac.sty
INPUT c:/texlive/2021/texmf-dist/tex/latex/ascmac/tascmac.sty
INPUT c:/texlive/2021/texmf-dist/tex/latex/ascmac/tascmac.sty
INPUT c:/texlive/2021/texmf-dist/tex/latex/ascmac/tascmac.sty
INPUT c:/texlive/2021/texmf-dist/tex/latex/ascmac/tascmac.sty
INPUT c:/texlive/2021/texmf-dist/tex/latex/ascmac/tascmac.sty
INPUT c:/texlive/2021/texmf-dist/tex/latex/ascmac/tascmac.sty
INPUT c:/texlive/2021/texmf-dist/fonts/tfm/public/ascmac/ascgrp.tfm
INPUT c:/texlive/2021/texmf-dist/tex/latex/graphics/color.sty
INPUT c:/texlive/2021/texmf-dist/tex/latex/graphics/color.sty
INPUT c:/texlive/2021/texmf-dist/tex/latex/graphics/color.sty
INPUT c:/texlive/2021/texmf-dist/tex/latex/graphics/color.sty
INPUT c:/texlive/2021/texmf-dist/tex/latex/graphics/color.sty
INPUT c:/texlive/2021/texmf-dist/tex/latex/graphics/color.sty
INPUT c:/texlive/2021/texmf-dist/tex/latex/graphics/color.sty
INPUT c:/texlive/2021/texmf-dist/tex/latex/graphics/color.sty
INPUT c:/texlive/2021/texmf-dist/tex/latex/graphics/color.sty
INPUT c:/texlive/2021/texmf-dist/tex/latex/graphics/color.sty
INPUT c:/texlive/2021/texmf-dist/tex/latex/graphics/color.sty
INPUT c:/texlive/2021/texmf-dist/tex/latex/graphics-cfg/color.cfg
INPUT c:/texlive/2021/texmf-dist/tex/latex/graphics-cfg/color.cfg
INPUT c:/texlive/2021/texmf-dist/tex/latex/graphics-cfg/color.cfg
INPUT c:/texlive/2021/texmf-dist/tex/latex/graphics-cfg/color.cfg
INPUT c:/texlive/2021/texmf-dist/tex/latex/graphics-def/dvips.def
INPUT c:/texlive/2021/texmf-dist/tex/latex/graphics-def/dvips.def
INPUT c:/texlive/2021/texmf-dist/tex/latex/graphics-def/dvips.def
INPUT c:/texlive/2021/texmf-dist/tex/latex/graphics-def/dvips.def
INPUT c:/texlive/2021/texmf-dist/tex/latex/graphics/dvipsnam.def
INPUT c:/texlive/2021/texmf-dist/tex/latex/graphics/dvipsnam.def
INPUT c:/texlive/2021/texmf-dist/tex/latex/graphics/dvipsnam.def
INPUT c:/texlive/2021/texmf-dist/tex/latex/graphics/dvipsnam.def
INPUT c:/texlive/2021/texmf-dist/tex/latex/l3backend/l3backend-dvips.def
INPUT c:/texlive/2021/texmf-dist/tex/latex/l3backend/l3backend-dvips.def
INPUT c:/texlive/2021/texmf-dist/tex/latex/l3backend/l3backend-dvips.def
INPUT c:/texlive/2021/texmf-dist/tex/latex/l3backend/l3backend-dvips.def
INPUT c:/texlive/2021/texmf-dist/tex/latex/l3backend/l3backend-dvips.def
INPUT c:/texlive/2021/texmf-dist/tex/latex/l3backend/l3backend-dvips.def
INPUT c:/texlive/2021/texmf-dist/tex/latex/l3backend/l3backend-dvips.def
INPUT c:/texlive/2021/texmf-dist/tex/latex/l3backend/l3backend-dvips.def
INPUT c:/texlive/2021/texmf-dist/tex/latex/l3backend/l3backend-dvips.def
INPUT c:/texlive/2021/texmf-dist/tex/latex/l3backend/l3backend-dvips.def
INPUT c:/texlive/2021/texmf-dist/tex/latex/l3backend/l3backend-dvips.def
INPUT out/text.aux
INPUT out/text.aux
INPUT out/text.aux
OUTPUT out/text.aux
INPUT c:/texlive/2021/texmf-dist/fonts/tfm/ptex-fonts/standard/tmin10.tfm
INPUT c:/texlive/2021/texmf-dist/fonts/tfm/ptex-fonts/jis/jis.tfm
INPUT c:/texlive/2021/texmf-dist/fonts/tfm/public/cm/cmr17.tfm
INPUT c:/texlive/2021/texmf-dist/fonts/tfm/ptex-fonts/standard/tmin10.tfm
INPUT c:/texlive/2021/texmf-dist/fonts/tfm/ptex-fonts/jis/jis.tfm
INPUT c:/texlive/2021/texmf-dist/fonts/tfm/public/cm/cmr12.tfm
INPUT c:/texlive/2021/texmf-dist/fonts/tfm/public/cm/cmr6.tfm
INPUT c:/texlive/2021/texmf-dist/fonts/tfm/public/cm/cmmi12.tfm
INPUT c:/texlive/2021/texmf-dist/fonts/tfm/public/cm/cmmi8.tfm
INPUT c:/texlive/2021/texmf-dist/fonts/tfm/public/cm/cmmi6.tfm
INPUT c:/texlive/2021/texmf-dist/fonts/tfm/public/cm/cmsy10.tfm
INPUT c:/texlive/2021/texmf-dist/fonts/tfm/public/cm/cmsy8.tfm
INPUT c:/texlive/2021/texmf-dist/fonts/tfm/public/cm/cmsy6.tfm
INPUT c:/texlive/2021/texmf-dist/fonts/tfm/public/cm/cmex10.tfm
INPUT c:/texlive/2021/texmf-dist/fonts/tfm/public/amsfonts/cmextra/cmex8.tfm
INPUT c:/texlive/2021/texmf-dist/fonts/tfm/public/amsfonts/cmextra/cmex7.tfm
INPUT c:/texlive/2021/texmf-dist/fonts/tfm/ptex-fonts/jis/jis.tfm
INPUT c:/texlive/2021/texmf-dist/tex/latex/amsfonts/umsa.fd
INPUT c:/texlive/2021/texmf-dist/tex/latex/amsfonts/umsa.fd
INPUT c:/texlive/2021/texmf-dist/tex/latex/amsfonts/umsa.fd
INPUT c:/texlive/2021/texmf-dist/tex/latex/amsfonts/umsa.fd
INPUT c:/texlive/2021/texmf-dist/fonts/tfm/public/amsfonts/symbols/msam10.tfm
INPUT c:/texlive/2021/texmf-dist/fonts/tfm/public/amsfonts/symbols/msam10.tfm
INPUT c:/texlive/2021/texmf-dist/fonts/tfm/public/amsfonts/symbols/msam7.tfm
INPUT c:/texlive/2021/texmf-dist/tex/latex/amsfonts/umsb.fd
INPUT c:/texlive/2021/texmf-dist/tex/latex/amsfonts/umsb.fd
INPUT c:/texlive/2021/texmf-dist/tex/latex/amsfonts/umsb.fd
INPUT c:/texlive/2021/texmf-dist/tex/latex/amsfonts/umsb.fd
INPUT c:/texlive/2021/texmf-dist/fonts/tfm/public/amsfonts/symbols/msbm10.tfm
INPUT c:/texlive/2021/texmf-dist/fonts/tfm/public/amsfonts/symbols/msbm10.tfm
INPUT c:/texlive/2021/texmf-dist/fonts/tfm/public/amsfonts/symbols/msbm7.tfm
INPUT c:/texlive/2021/texmf-dist/fonts/tfm/public/cm/cmbx12.tfm
INPUT c:/texlive/2021/texmf-dist/fonts/tfm/public/cm/cmbx8.tfm
INPUT c:/texlive/2021/texmf-dist/fonts/tfm/public/cm/cmbx6.tfm
INPUT c:/texlive/2021/texmf-dist/fonts/tfm/public/cm/cmmib10.tfm
INPUT c:/texlive/2021/texmf-dist/fonts/tfm/public/amsfonts/cmextra/cmmib8.tfm
INPUT c:/texlive/2021/texmf-dist/fonts/tfm/public/amsfonts/cmextra/cmmib6.tfm
INPUT c:/texlive/2021/texmf-dist/fonts/tfm/public/cm/cmbsy10.tfm
INPUT c:/texlive/2021/texmf-dist/fonts/tfm/public/amsfonts/cmextra/cmbsy8.tfm
INPUT c:/texlive/2021/texmf-dist/fonts/tfm/public/amsfonts/cmextra/cmbsy6.tfm
INPUT c:/texlive/2021/texmf-dist/fonts/tfm/ptex-fonts/jis/jisg.tfm
INPUT c:/texlive/2021/texmf-dist/fonts/tfm/ptex-fonts/jis/jisg.tfm
INPUT c:/texlive/2021/texmf-dist/fonts/tfm/ptex-fonts/jis/jisg.tfm
INPUT c:/texlive/2021/texmf-dist/fonts/tfm/public/amsfonts/cmextra/cmex7.tfm
INPUT c:/texlive/2021/texmf-dist/fonts/tfm/public/amsfonts/cmextra/cmex7.tfm
INPUT c:/texlive/2021/texmf-dist/fonts/tfm/ptex-fonts/jis/jis.tfm
INPUT c:/texlive/2021/texmf-dist/fonts/tfm/ptex-fonts/jis/jis.tfm
INPUT c:/texlive/2021/texmf-dist/fonts/tfm/public/amsfonts/symbols/msam10.tfm
INPUT c:/texlive/2021/texmf-dist/fonts/tfm/public/amsfonts/symbols/msam7.tfm
INPUT c:/texlive/2021/texmf-dist/fonts/tfm/public/amsfonts/symbols/msam5.tfm
INPUT c:/texlive/2021/texmf-dist/fonts/tfm/public/amsfonts/symbols/msbm10.tfm
INPUT c:/texlive/2021/texmf-dist/fonts/tfm/public/amsfonts/symbols/msbm7.tfm
INPUT c:/texlive/2021/texmf-dist/fonts/tfm/public/amsfonts/symbols/msbm5.tfm
INPUT c:/texlive/2021/texmf-dist/fonts/tfm/public/cm/cmbx10.tfm
INPUT c:/texlive/2021/texmf-dist/fonts/tfm/public/cm/cmbx7.tfm
INPUT c:/texlive/2021/texmf-dist/fonts/tfm/public/cm/cmbx5.tfm
INPUT c:/texlive/2021/texmf-dist/fonts/tfm/public/cm/cmmib10.tfm
INPUT c:/texlive/2021/texmf-dist/fonts/tfm/public/amsfonts/cmextra/cmmib7.tfm
INPUT c:/texlive/2021/texmf-dist/fonts/tfm/public/amsfonts/cmextra/cmmib5.tfm
INPUT c:/texlive/2021/texmf-dist/fonts/tfm/public/cm/cmbsy10.tfm
INPUT c:/texlive/2021/texmf-dist/fonts/tfm/public/amsfonts/cmextra/cmbsy7.tfm
INPUT c:/texlive/2021/texmf-dist/fonts/tfm/public/amsfonts/cmextra/cmbsy5.tfm
INPUT c:/texlive/2021/texmf-dist/fonts/tfm/ptex-fonts/jis/jisg.tfm
INPUT c:/texlive/2021/texmf-dist/fonts/tfm/ptex-fonts/jis/jisg.tfm
INPUT c:/texlive/2021/texmf-dist/fonts/tfm/ptex-fonts/jis/jisg.tfm
OUTPUT out/text.dvi
INPUT c:/texlive/2021/texmf-dist/fonts/tfm/ptex-fonts/standard/tmin10.tfm
INPUT c:/texlive/2021/texmf-dist/fonts/tfm/ptex-fonts/jis/jis.tfm
INPUT c:/texlive/2021/texmf-dist/fonts/tfm/public/cm/cmr12.tfm
INPUT c:/texlive/2021/texmf-dist/fonts/tfm/ptex-fonts/standard/tgoth10.tfm
INPUT c:/texlive/2021/texmf-dist/fonts/tfm/ptex-fonts/jis/jisg.tfm
INPUT c:/texlive/2021/texmf-dist/fonts/tfm/public/cm/cmss12.tfm
INPUT c:/texlive/2021/texmf-dist/fonts/tfm/public/cm/cmmi12.tfm
INPUT c:/texlive/2021/texmf-dist/fonts/tfm/public/cm/cmsy10.tfm
INPUT c:/texlive/2021/texmf-dist/fonts/tfm/public/cm/cmex10.tfm
INPUT c:/texlive/2021/texmf-dist/fonts/tfm/public/amsfonts/symbols/msam10.tfm
INPUT c:/texlive/2021/texmf-dist/fonts/tfm/public/amsfonts/symbols/msbm10.tfm
INPUT c:/texlive/2021/texmf-dist/fonts/tfm/public/cm/cmbx12.tfm
INPUT c:/texlive/2021/texmf-dist/fonts/tfm/public/cm/cmmib10.tfm
INPUT c:/texlive/2021/texmf-dist/fonts/tfm/public/cm/cmbsy10.tfm
INPUT c:/texlive/2021/texmf-dist/fonts/tfm/ptex-fonts/standard/tmin10.tfm
INPUT c:/texlive/2021/texmf-dist/fonts/tfm/ptex-fonts/jis/jis.tfm
INPUT c:/texlive/2021/texmf-dist/fonts/tfm/public/cm/cmr9.tfm
INPUT out/text.aux
