\relax 
\newlabel{EoM}{{2}{1}}
\newlabel{v_i}{{9}{3}}
\newlabel{y_i}{{10}{3}}
\newlabel{tra}{{16}{3}}
\@writefile{lot}{\contentsline {table}{\numberline {1}{\ignorespaces 解析解とホイン法の解}}{4}{}\protected@file@percent }
\newlabel{table:data_type}{{1}{4}}
\gdef \@abspage@last{4}
